1 10 20
100 200 125
201 210 89
900 1000 174
650 748 171
680 123 145
95 269 128
459 268 144
236 977 179
557 410 142
348 894 179
833 458 171
253 748 171
428 230 144
917 474 179
969 372 179
749 310 171
562 539 137
702 905 179
754 78 171
60 249 128
947 309 179
666 476 145
644 343 142
781 132 171
546 426 142
896 517 179
534 737 171
331 740 171
934 763 179
328 618 142
401 963 179
640 417 142
972 510 179
997 218 179
122 739 171
923 341 179
496 813 171
132 542 144
873 449 179
937 411 179
531 162 144
29 522 144
380 627 142
568 931 179
795 994 179
862 760 153
994 310 179
341 949 179
371 790 171
158 643 144
801 130 171
567 855 171
147 961 179
966 677 179
369 567 142
602 271 144
600 268 144
102 681 145
372 529 142
177 73 125
396 761 171
573 822 171
237 574 144
925 640 179
59 504 144
171 962 179
126 216 125
480 711 171
221 110 125
743 850 153
127 295 128
76 417 144
987 499 179
405 529 142
169 839 171
127 551 144
198 516 144
89 828 171
474 40 144
607 11 144
231 331 144
689 216 145
948 523 179
163 826 171
290 268 118
969 152 179
755 624 171
484 173 144
324 477 144
187 404 144
360 656 145
948 325 179
469 685 145
289 476 144
367 862 171
383 118 144
294 10 128
869 987 179
252 934 179
572 54 144
77 53 116
381 752 171
855 98 171
514 67 144
249 178 128
624 11 144
13 401 144
723 653 171
537 19 144
215 698 145
882 364 179
223 152 125
897 619 179
681 861 171
982 449 179
777 324 171
294 407 144
449 629 142
523 937 179
292 460 144
34 175 125
603 204 144
209 232 128
266 448 144
885 684 179
792 991 179
656 149 145
917 773 179
423 357 134
614 28 144
404 521 142
200 932 179
963 618 179
210 695 145
960 839 179
541 656 145
510 912 179
380 512 142
952 814 179
248 490 144
174 203 120
172 338 144
329 834 171
977 370 179
605 188 144
24 352 144
505 794 171
490 165 144
203 779 171
773 331 171
439 436 116
536 684 145
101 411 144
449 618 142
547 761 171
732 636 171
463 249 144
97 47 119
372 462 134
346 372 126
303 278 118
404 771 171
207 582 144
227 120 125
974 438 179
992 10 179
643 264 144
8 503 144
823 319 171
793 632 171
81 297 128
270 805 171
361 856 171
384 729 171
176 87 125
142 792 171
953 959 130
677 578 145
312 918 179
848 631 171
280 871 179
605 87 144
379 632 142
172 899 179
368 478 134
137 996 179
282 46 128
375 166 144
652 403 145
97 245 128
787 582 171
523 777 171
17 151 122
213 584 144
551 923 179
285 368 144
954 215 179
