1 10 20
100 200 125
201 210 89
900 1000 174
1 20 21
10 1 20
1 1 1
1000 2000 182
1 1000 179
1 10000 262
1 100000 351
1 999999 525
999998 999999 259
2000 3000 217
3000 4000 238
100000 200000 383
200000 300000 443
300000 400000 441
400000 600000 470
600000 800000 509
800000 900000 525
850000 900000 445
800000 825000 450
825000 830000 419
830000 840000 525
111111 999999 525
20 1 21
4000 5000 215
5000 6000 236
6000 7000 262
7000 8000 252
8000 9000 247
9000 8000 247
9000 10000 260
1 100 119
100 400 144
400 800 171
800 1600 182
1600 3200 217
3200 6400 262
6400 12800 268
12800 25600 282
25600 51200 324
51200 102400 351
102400 204800 383
204800 409600 443
409600 819200 509
2 32 112
32 128 119
128 256 128
256 512 144
100 200 125
200 300 128
300 400 144
400 500 142
500 600 137
600 700 145
700 800 171
800 900 179
900 1000 174
1000 1100 169
1100 1200 182
1200 1300 177
1300 1400 177
1400 1500 172
1600 1700 180
1700 1800 180
1800 1900 175
1900 2000 175
2000 2100 157
2100 2200 170
2200 2400 183
2400 2600 209
2600 2800 191
2800 3000 217
3200 3000 199
3200 3400 181
3400 3600 194
3600 3800 238
3800 4000 189
4000 4200 189
4000 4400 215
4400 5000 210
5500 5000 192
5500 6000 236
6000 6123 187
6123 6456 262
6400 6800 244
6800 7200 257
7200 7600 239
7600 8000 252
8111 8444 234
8444 8888 216
8888 9111 247
9111 9999 260
9999 11111 268
11111 12345 263
12345 15432 276
15000 18000 279
18000 20000 274
22222 33333 308
33333 44444 324
44444 55555 340
55555 66666 335
77777 66666 351
77777 88888 338
88888 99999 333
99999 111111 354
111111 222222 386
222222 333333 443
444444 555555 470
78 875 179
874 985 174
6534 6478 200
986 895 174
785 897 179
1342 3432 217
14 87 116
896403 738989 525
752823 566434 509
