1 10 20
100 200 125
201 210 89
900 1000 174
9000 10000 174
1 1 1
5 10 1
10 10 15
9999 10000 252
1390 4104 940
2 4 2
23 32 43
38999 21092 239
556 1483 438
1488 9438 348 
2489 2940 439
299 1293 439
1752 3819 902
2045 6671 904
4891 5748 293
4278 9402 902
49 94 90
05 15 10
1378 4981 472
60001 61000 941
64 84 83
4013 4401 102
1111 1 23
10 10 15 
400 400 50
1 106 39
9431 4900 233
4999 1900 290
4819 5677 430
48 84 34
8299 6478 302
1000 10000 293
2773 3773 895
10 5000 115
2000 2020 439
1997 2323 948
174 894 437
15 105 239
8 80 40
18888 74310 347
69 69 68
5837 8593 438
89435 23489 579
1 20 25
20 49 54
9999 9910 349
2489 4829 239
4289 5499 872
90 84 76
8924 1293 494
4892 8294 647
8912 4829 547
60942 42908 329
39 93 23
4892 9824 349
6728 1944 954
42367 76247 899
8924 4824 329
300 301 24
489 849 43
550 10 25
4890 4904 234
89 429 34
9025 2489 314
2478 9424 653
8493 9042 757
192 480 75
4892 9558 754
99410 49980 345
74827 84928 647
85247 24892 455
8954 7255 635
1000 400 646
48297 48294 636
347 47284 356
49274 4829 575
4238 7 57
90 91 56
24 4893 752
89 9004 425
4204 89 524
7593 2498 34
78482 74285 243
9755 9857 234
894 498 465
4825 9528 243 
48 84 243
238 9403 24
100 10 25
44 999 33
777 776 243
4893 8923 243
849 8943 678
23 843 463
723 894 654
892 4392 56
4 50 25
250 10 354
489 999 23
50 50 25
