1 10 20
100 200 125
201 210 89
900 1000 174
10 20 21
20 29 112
30 40 107
40 45 110
500 700 145
1000 1200 182
1201 1299 177
1300 1400 177
6000 6700 262
101 199 125
100 256 128
560 660 145
118 199 125
101 104 88
1001 2009 182
4200 5200 215
10000 12000 268
12000 12500 263
4300 4500 215
50000 52000 309
1300 1700 180
102 198 125
30 3000 217
50 5000 238
5001 5002 65
4001 4002 52
500 607 137
607 699 145
1 11 20
1 101 119
1 1001 179
99997 99999 227
99998 99999 227
99 1009 179
156 175 125
80000 85000 320
90000 91000 315
92500 92503 147
92500 92500 54
92100 92101 59
340 560 142
860 934 179
10001 10003 180
10000 15678 276
1234 3456 217
1234 2345 183
1234 4567 238
2345 3456 217
2345 4567 238
3456 4567 238
123 234 128
234 345 144
345 456 134
456 567 142
567 678 145
678 789 171
987 999 112
1009 1100 169
10000 12005 268
10203 10940 255
32400 34000 267
35600 40000 324
7856 7890 177
8000 8069 190
42069 69420 340
69 96 116
8008 8080 190
808 909 179
99 199 125
929 979 174
56899 57400 304
30000 32019 285
6969 9696 260
808 5450 238
303 3900 238
713 962 179
8132 8190 177
3404 4231 238
14007 16702 271
75078 78705 351
281 788 171
371 3434 217
77429 75078 351
77429 78705 307
9999 14099 276
95001 96000 328
10234 10345 242
10345 10456 255
10567 10678 255
10678 10789 193
12345 13001 263
98760 98789 160
54321 54345 203
65432 65456 162
76543 76567 170
87654 87678 240
98765 98789 160
7575 8686 252
6464 7575 257
7676 8787 252
42425 53536 340
32 30 107
32 30 107
100 90 119
32000 30000 285
99999 97654 328
100 1 119
9 9 20
100000 1 351
201 210 89
900 1000 174
50 1 112
50 2 112
50 3 112
50 4 112
50 5 112
50 6 112
50 7 112
50 8 112
50 9 112
49 1 112
49 2 112
49 3 112
49 4 112
49 5 112
49 6 112
49 7 112
49 8 112
49 9 112
48 1 112
48 2 112
48 3 112
48 4 112
48 5 112
48 6 112
48 7 112
48 8 112
48 9 112
47 1 112
47 2 112
47 3 112
47 4 112
47 5 112
47 6 112
47 7 112
47 8 112
47 9 112
46 1 112
46 2 112
46 3 112
46 4 112
46 5 112
46 6 112
46 7 112
46 8 112
46 9 112
45 1 112
45 2 112
45 3 112
45 4 112
45 5 112
45 6 112
45 7 112
45 8 112
45 9 112
44 1 112
44 2 112
44 3 112
44 4 112
44 5 112
44 6 112
44 7 112
44 8 112
44 9 112
43 1 112
43 2 112
43 3 112
43 4 112
43 5 112
43 6 112
43 7 112
43 8 112
43 9 112
42 1 112
42 2 112
42 3 112
42 4 112
42 5 112
42 6 112
42 7 112
42 8 112
42 9 112
41 1 112
41 2 112
41 3 112
41 4 112
5 41 112
