1 10 20
100 200 125
201 210 89
900 1000 174
255877 255895 288
696791 696701 336
396364 396671 299
186493 184528 329
494106 494641 307
755839 754260 362
124042 125003 287
654579 652880 385
436897 436938 294
680327 678592 380
325510 327135 322
38027 36513 306
4235 4274 202
76306 75526 307
82408 82620 307
151530 150163 339
110408 111216 292
12653 12098 263
762043 763799 375
963521 961810 414
253618 253710 288
752337 751632 318
790545 790845 375
179606 179182 303
647460 649254 385
951624 949907 414
312484 314303 353
865285 864553 326
795235 797071 468
454561 452943 369
886684 888152 445
354318 353174 348
201217 201913 311
97669 95775 297
660359 660509 217
806820 806682 344
400486 400538 255
463406 462852 325
207690 207802 249
170450 169648 290
856015 854366 388
520714 522451 364
850486 848805 357
986006 987280 396
136192 135043 344
962256 963937 414
945364 943589 383
233987 235047 381
495403 494854 320
392611 392616 162
103947 102478 310
285007 286068 376
487092 486308 382
781683 781687 207
320238 319128 322
119092 120779 318
110019 109485 310
794611 795695 331
290933 289427 327
526915 527986 377
601232 600786 341
36557 38507 306
867147 865393 388
963598 964190 383
155810 154966 308
284869 285064 301
721976 721707 367
705059 707030 380
353915 353453 229
356992 357982 304
132608 131025 331
795870 795898 269
660102 659180 354
766582 767915 468
666282 666242 261
737441 737623 318
947818 946414 383
544649 546100 346
198759 198538 298
607167 607767 341
433371 431856 387
519696 521213 364
3433 1945 217
805673 807434 406
7038 5879 262
606725 607338 297
881052 880024 326
664689 666587 442
165847 165092 321
262710 263942 407
510448 509938 289
700604 702264 411
846493 845935 313
704352 704734 504
715237 715224 243
143948 144660 326
356922 355978 348
85802 86151 227
582245 580276 328
802096 802820 388
216291 215973 324
350529 351790 379
721843 721170 349
685698 686569 336
143257 141816 375
546476 546509 271
527248 527146 302
703522 703921 305
867172 865930 326
477552 479425 351
322788 322061 309
499862 500716 364
848435 846579 419
537843 538152 302
476359 476261 245
447348 447361 188
473359 473331 276
350198 351108 304
389264 387976 436
872601 873979 326
948347 946648 383
917028 917251 383
760843 759453 380
757223 757326 331
396695 395375 330
909250 910341 476
242808 241433 319
197703 198340 329
27989 26497 308
304114 304922 309
584688 584394 297
103457 103505 204
474928 474856 351
975808 976727 383
163207 162222 339
433992 435223 356
860422 859759 357
770632 771491 349
305370 304258 309
891236 892667 326
210299 209239 342
887525 888515 401
894247 893728 295
631586 631893 266
804783 804039 331
422021 423402 356
394050 392964 361
931598 933374 370
240477 239337 306
1 999999 525
1 999998 525
