1 10 20
100 200 125
201 210 89
900 1000 174
2000 1001 182
311001 312000 309
637000 636001 310
191001 192000 329
999999 999000 396
17001 18000 279
10000 10000 30
38001 39000 244
848001 849000 313
930001 931000 370
8000 7001 252
55 19 113
234 912 179
1502 18235 279
3910 6840 262
329 2340 183
86001 87000 302
57001 58000 304
412001 413000 343
774001 775000 331
499 4544 238
4457 9605 262
8966 4773 262
8452 8239 234
5087 3826 215
3003 4111 238
9909 2898 262
972 1082 169
6428 960 262
594 270 144
7128 3597 262
6310 9436 260
7624 6593 257
7525 8536 252
8456 1821 262
6967 3125 262
851 5547 238
1686 7896 262
2709 7720 262
3665 1242 217
174352 107538 383
121205 152561 375
180355 44641 383
114807 28573 354
77125 247265 443
124856 130387 344
87954 180842 383
262329 81847 443
156179 35694 383
152075 72612 375
293610 296059 358
162297 43740 383
93028 76131 351
88841 203267 383
141883 264381 443
67099 95253 351
42034 121373 354
230601 108925 386
76892 256297 443
96991 131268 354
45651 124656 354
95782 328068 443
491064 296809 449
216671 234726 443
32052 303889 443
583374 495715 470
226568 351323 443
564878 457261 470
374495 128669 443
243136 410891 449
167483 90453 383
253454 435177 449
586021 331496 470
384479 472030 449
450873 210178 449
511135 181961 449
597270 436498 470
48459 474044 449
3570 262276 443
469991 318460 449
920576 76979 525
375334 404657 436
345390 957567 525
354406 676892 509
115567 27634 354
716476 136076 509
248576 432609 449
661505 698979 442
67369 171273 383
351037 631491 509
387436 984218 525
202418 843041 525
472028 908888 525
599701 296624 470
830767 547448 509
48737 514195 470
899430 435616 525
407461 438843 449
375557 580473 470
261732 421647 449
