1 10 20
100 200 125
201 210 89
900 1000 174
9000 1 262
100 200 125
420 500 142
999990 999991 166
200 300 128
900 999 174
1000 1005 143
900000 900001 189
2 1596 182
99 9999 262
1 1999 182
340 30100 308
5 6 9
7 10 20
1 98746 351
9998 9999 92
605293 606510 341
756134 756776 362
478642 479101 338
815892 815933 269
719120 719135 212
929000 929040 220
948351 948681 326
491202 491808 320
504516 507852 382
975688 975948 334
945718 945752 202
747700 747747 243
652581 653137 336
655077 655161 186
567537 567893 346
851001 851038 357
524421 524569 302
549010 549173 240
782205 782263 287
422252 422691 325
285142 285524 376
478472 479285 338
748121 748122 256
823874 824088 238
388354 388444 299
981428 981459 184
830977 832487 419
654572 654612 248
240125 241624 368
532347 536933 377
545105 545167 209
850670 851113 357
319662 322868 371
831101 831411 419
859271 859331 295
998394 998498 277
975165 975228 228
680538 681880 336
786013 786351 300
780568 780732 300
261481 261858 288
908012 909802 370
984242 984350 259
788836 791387 406
919454 919499 202
575642 575716 297
915504 916839 339
285788 285880 252
850229 850334 251
737959 737960 150
809210 810518 406
727312 727631 318
743706 745566 318
461147 463724 444
541191 542743 364
947523 950576 383
574485 575669 328
585113 587943 359
982165 982843 383
806280 806281 70
379341 379868 361
155281 158691 383
854261 855194 357
276791 280194 389
655238 655329 292
358577 358839 348
842747 844169 388
612187 612358 235
431000 431055 325
281758 283365 358
984063 984208 277
884741 885879 370
724852 724970 243
869222 869573 388
2 10 20
3 10 20
4 10 20
1 10000 262
2 10000 262
3 10000 262
4 10000 262
5 200 125
34 6434 262
345 546 142
6 359 144
45 576 144
2 44 112
18 473 144
43 576 144
2332 3448 217
234 554 144
