53 99 119
1 38 112
87 91 93
82 90 111
18 71 113
75 82 111
20 94 116
68 82 116
99 100 26
41 92 116
40 100 119
55 86 116
23 92 116
75 84 111
48 88 116
84 95 106
96 97 119
43 63 113
6 95 116
13 32 112
3 10 20
57 98 119
43 95 116
62 94 116
29 60 113
100 100 26
77 79 36
9 56 113
6 52 112
4 70 113
88 94 106
55 92 116
55 83 116
72 77 116
7 64 113
20 79 116
29 50 110
85 96 106
81 97 119
52 98 119
22 70 113
13 98 119
70 79 116
17 79 116
41 44 110
29 34 107
77 77 23
100 100 26
98 100 26
17 63 113
31 97 119
22 44 112
52 53 12
54 95 116
72 89 116
58 80 116
17 70 113
9 25 24
51 94 116
80 89 111
55 85 116
20 66 113
11 57 113
97 99 119
8 27 112
95 100 119
30 67 113
17 36 112
87 92 93
12 74 116
91 95 106
60 99 119
42 56 113
111 912 179
207 497 144
279 715 171
264 780 171
199 2089 182
899 788 179
501 983 179
140 525 144
186 345 144
429 476 129
760 846 153
499 799 171
103 381 144
965 995 143
647 982 179
694 936 179
796 942 179
302 522 144
956 994 143
720 822 153
226 275 128
410 481 134
816 874 179
896 914 130
970 989 143
607 932 179
970 975 143
648 906 179
678 874 179
948 971 143
174 732 171
508 838 171
912 985 174
659 677 145
528 994 179
259 510 144
362 830 171
289 725 171
277 447 144
970 997 143
533 931 179
347 679 145
315 830 171
379 478 134
606 954 179
841 938 179
766 948 179
738 795 153
3 828 171
71 270 128
459 698 145
547 970 179
619 886 179
654 950 179
996 996 50
301 391 144
788 809 122
107 255 128
939 995 143
375 774 171
477 484 98
286 854 171
49 687 145
74 105 119
618 985 179
38 351 144
958 1000 143
694 733 171
725 890 179
75 854 171
794 976 179
687 712 171
715 791 153
240 565 144
625 868 171
463 769 171
950 1000 143
330 409 126
199 891 179
331 748 171
267 438 144
542 596 137
256 349 144
866 959 179
784 845 135
399 581 142
908 961 174
747 948 179
419 659 145
178 543 144
92 762 171
755 923 179
52 297 128
916 933 130
412 690 145
523 523 124
674 752 171
27 351 144
552 588 137
528 852 171
22 890 179
610 837 171
766 863 153
991 991 99
969 984 143
139 882 179
616 698 145
856 903 179
322 447 144
124 340 144
141 267 128
624 841 171
653 927 179
285 601 144
568 895 179
501 900 179
402 631 142
270 787 171
190 599 144
115 477 144
768 874 179
753 944 179
768 862 153
116 892 179
432 627 142
105 341 144
199 423 144
261 837 171
488 827 171
768 876 179
189 618 144
411 684 145
721 777 153
679 769 171
430 669 145
589 603 119
346 487 142
606 708 171
